<?xml version="1.0" encoding="UTF-8"?><svg xmlns="http://www.w3.org/2000/svg" xmlns:xlink="http://www.w3.org/1999/xlink" fill-opacity="1" color-rendering="auto" color-interpolation="auto" text-rendering="auto" stroke="black" stroke-linecap="square" width="2140" stroke-miterlimit="10" shape-rendering="auto" stroke-opacity="1" fill="black" stroke-dasharray="none" font-weight="normal" stroke-width="1" height="1356" font-family="'Dialog'" font-style="normal" stroke-linejoin="miter" font-size="12px" stroke-dashoffset="0" image-rendering="auto">
  <!--Generated by ySVG 2.5-->
  <defs id="genericDefs"/>
  <g>
    <defs id="defs1">
      <clipPath clipPathUnits="userSpaceOnUse" id="clipPath1">
        <path d="M0 0 L2140 0 L2140 1356 L0 1356 L0 0 Z"/>
      </clipPath>
      <clipPath clipPathUnits="userSpaceOnUse" id="clipPath2">
        <path d="M6804 150 L8944 150 L8944 1506 L6804 1506 L6804 150 Z"/>
      </clipPath>
    </defs>
    <g fill="white" text-rendering="geometricPrecision" shape-rendering="geometricPrecision" transform="translate(-6804,-150)" stroke="white">
      <rect x="6804" width="2140" height="1356" y="150" clip-path="url(#clipPath2)" stroke="none"/>
    </g>
    <g fill="rgb(255,153,0)" text-rendering="geometricPrecision" shape-rendering="geometricPrecision" transform="matrix(1,0,0,1,-6804,-150)" stroke="rgb(255,153,0)">
      <ellipse rx="68.5857" ry="25" clip-path="url(#clipPath2)" cx="7929.6547" cy="457.1004" stroke="none"/>
    </g>
    <g font-size="13px" stroke-linecap="butt" transform="matrix(1,0,0,1,-6804,-150)" text-rendering="geometricPrecision" font-family="sans-serif" shape-rendering="geometricPrecision" stroke-miterlimit="1.45">
      <text x="7901.4839" xml:space="preserve" y="462.2071" clip-path="url(#clipPath2)" stroke="none">PARTIDA</text>
      <ellipse rx="68.5857" fill="none" ry="25" clip-path="url(#clipPath2)" cx="7929.6547" cy="457.1004"/>
    </g>
    <g fill="rgb(255,204,0)" text-rendering="geometricPrecision" shape-rendering="geometricPrecision" transform="matrix(1,0,0,1,-6804,-150)" stroke="rgb(255,204,0)">
      <ellipse rx="55" ry="25" clip-path="url(#clipPath2)" cx="7490.5804" cy="999.0528" stroke="none"/>
    </g>
    <g font-size="13px" stroke-linecap="butt" transform="matrix(1,0,0,1,-6804,-150)" text-rendering="geometricPrecision" font-family="sans-serif" shape-rendering="geometricPrecision" stroke-miterlimit="1.45">
      <text x="7456.2588" xml:space="preserve" y="1004.1595" clip-path="url(#clipPath2)" stroke="none">estadísticas</text>
      <ellipse rx="55" fill="none" ry="25" clip-path="url(#clipPath2)" cx="7490.5804" cy="999.0528"/>
    </g>
    <g fill="rgb(255,153,0)" text-rendering="geometricPrecision" shape-rendering="geometricPrecision" transform="matrix(1,0,0,1,-6804,-150)" stroke="rgb(255,153,0)">
      <ellipse rx="62" ry="31.486" clip-path="url(#clipPath2)" cx="7222.5303" cy="999.0528" stroke="none"/>
    </g>
    <g font-size="13px" stroke-linecap="butt" transform="matrix(1,0,0,1,-6804,-150)" text-rendering="geometricPrecision" font-family="sans-serif" shape-rendering="geometricPrecision" stroke-miterlimit="1.45">
      <text x="7182.083" xml:space="preserve" y="996.1964" clip-path="url(#clipPath2)" stroke="none">HISTÓRICOS</text>
      <text x="7179.1885" xml:space="preserve" y="1012.1227" clip-path="url(#clipPath2)" stroke="none">DE PARTIDAS</text>
      <ellipse rx="62" fill="none" ry="31.486" clip-path="url(#clipPath2)" cx="7222.5303" cy="999.0528"/>
    </g>
    <g fill="rgb(255,153,0)" text-rendering="geometricPrecision" shape-rendering="geometricPrecision" transform="matrix(1,0,0,1,-6804,-150)" stroke="rgb(255,153,0)">
      <ellipse rx="76.3483" ry="25" clip-path="url(#clipPath2)" cx="7699.0618" cy="780.923" stroke="none"/>
    </g>
    <g font-size="13px" stroke-linecap="butt" transform="matrix(1,0,0,1,-6804,-150)" text-rendering="geometricPrecision" font-family="sans-serif" shape-rendering="geometricPrecision" stroke-miterlimit="1.45">
      <text x="7667.2822" xml:space="preserve" y="786.0297" clip-path="url(#clipPath2)" stroke="none">JUGADOR</text>
      <ellipse rx="76.3483" fill="none" ry="25" clip-path="url(#clipPath2)" cx="7699.0618" cy="780.923"/>
    </g>
    <g fill="rgb(255,204,0)" text-rendering="geometricPrecision" shape-rendering="geometricPrecision" transform="matrix(1,0,0,1,-6804,-150)" stroke="rgb(255,204,0)">
      <ellipse rx="55" ry="25" clip-path="url(#clipPath2)" cx="7699.0618" cy="457.1004" stroke="none"/>
    </g>
    <g font-size="13px" stroke-linecap="butt" transform="matrix(1,0,0,1,-6804,-150)" text-rendering="geometricPrecision" font-family="sans-serif" shape-rendering="geometricPrecision" stroke-miterlimit="1.45">
      <text x="7655.7012" xml:space="preserve" y="462.2071" clip-path="url(#clipPath2)" stroke="none">bolsa de fichas</text>
      <ellipse rx="55" fill="none" ry="25" clip-path="url(#clipPath2)" cx="7699.0618" cy="457.1004"/>
    </g>
    <g fill="rgb(255,204,0)" text-rendering="geometricPrecision" shape-rendering="geometricPrecision" transform="matrix(1,0,0,1,-6804,-150)" stroke="rgb(255,204,0)">
      <ellipse rx="55" ry="25" clip-path="url(#clipPath2)" cx="8303.2285" cy="1308.234" stroke="none"/>
    </g>
    <g font-size="13px" stroke-linecap="butt" transform="matrix(1,0,0,1,-6804,-150)" text-rendering="geometricPrecision" font-family="sans-serif" shape-rendering="geometricPrecision" stroke-miterlimit="1.45">
      <text x="8271.4326" xml:space="preserve" y="1313.3407" clip-path="url(#clipPath2)" stroke="none">datos perfil</text>
      <ellipse rx="55" fill="none" ry="25" clip-path="url(#clipPath2)" cx="8303.2285" cy="1308.234"/>
    </g>
    <g fill="rgb(255,204,0)" text-rendering="geometricPrecision" shape-rendering="geometricPrecision" transform="matrix(1,0,0,1,-6804,-150)" stroke="rgb(255,204,0)">
      <ellipse rx="55" ry="25" clip-path="url(#clipPath2)" cx="7470.1108" cy="457.1004" stroke="none"/>
    </g>
    <g font-size="13px" stroke-linecap="butt" transform="matrix(1,0,0,1,-6804,-150)" text-rendering="geometricPrecision" font-family="sans-serif" shape-rendering="geometricPrecision" stroke-miterlimit="1.45">
      <text x="7453.1309" xml:space="preserve" y="462.2071" clip-path="url(#clipPath2)" stroke="none">fichas</text>
      <ellipse rx="55" fill="none" ry="25" clip-path="url(#clipPath2)" cx="7470.1108" cy="457.1004"/>
    </g>
    <g fill="rgb(255,102,0)" text-rendering="geometricPrecision" shape-rendering="geometricPrecision" transform="matrix(1,0,0,1,-6804,-150)" stroke="rgb(255,102,0)">
      <ellipse rx="97.5628" ry="33.0455" clip-path="url(#clipPath2)" cx="8303.2285" cy="780.923" stroke="none"/>
    </g>
    <g font-size="13px" stroke-linecap="butt" transform="matrix(1,0,0,1,-6804,-150)" text-rendering="geometricPrecision" font-family="sans-serif" shape-rendering="geometricPrecision" stroke-miterlimit="1.45">
      <text x="8224.4951" xml:space="preserve" y="786.0297" clip-path="url(#clipPath2)" stroke="none">USUARIO REGISTRADOS</text>
      <ellipse rx="97.5628" fill="none" ry="33.0455" clip-path="url(#clipPath2)" cx="8303.2285" cy="780.923"/>
    </g>
    <g fill="rgb(255,204,0)" text-rendering="geometricPrecision" shape-rendering="geometricPrecision" transform="matrix(1,0,0,1,-6804,-150)" stroke="rgb(255,204,0)">
      <ellipse rx="55" ry="25" clip-path="url(#clipPath2)" cx="7490.5804" cy="1308.234" stroke="none"/>
    </g>
    <g font-size="13px" stroke-linecap="butt" transform="matrix(1,0,0,1,-6804,-150)" text-rendering="geometricPrecision" font-family="sans-serif" shape-rendering="geometricPrecision" stroke-miterlimit="1.45">
      <text x="7469.2617" xml:space="preserve" y="1313.3407" clip-path="url(#clipPath2)" stroke="none">ranking</text>
      <ellipse rx="55" fill="none" ry="25" clip-path="url(#clipPath2)" cx="7490.5804" cy="1308.234"/>
    </g>
    <g fill="rgb(255,153,0)" text-rendering="geometricPrecision" shape-rendering="geometricPrecision" transform="matrix(1,0,0,1,-6804,-150)" stroke="rgb(255,153,0)">
      <ellipse rx="55" ry="25" clip-path="url(#clipPath2)" cx="8303.2285" cy="457.1004" stroke="none"/>
    </g>
    <g font-size="13px" stroke-linecap="butt" transform="matrix(1,0,0,1,-6804,-150)" text-rendering="geometricPrecision" font-family="sans-serif" shape-rendering="geometricPrecision" stroke-miterlimit="1.45">
      <text x="8256.6465" xml:space="preserve" y="454.2439" clip-path="url(#clipPath2)" stroke="none">NOTIFICACIÓN</text>
      <text x="8285.1729" xml:space="preserve" y="470.1702" clip-path="url(#clipPath2)" stroke="none">RETO</text>
      <ellipse rx="55" fill="none" ry="25" clip-path="url(#clipPath2)" cx="8303.2285" cy="457.1004"/>
    </g>
    <g fill="rgb(255,204,0)" text-rendering="geometricPrecision" shape-rendering="geometricPrecision" transform="matrix(1,0,0,1,-6804,-150)" stroke="rgb(255,204,0)">
      <ellipse rx="55" ry="25" clip-path="url(#clipPath2)" cx="7222.5303" cy="780.923" stroke="none"/>
    </g>
    <g font-size="13px" stroke-linecap="butt" transform="matrix(1,0,0,1,-6804,-150)" text-rendering="geometricPrecision" font-family="sans-serif" shape-rendering="geometricPrecision" stroke-miterlimit="1.45">
      <text x="7197.5967" xml:space="preserve" y="786.0297" clip-path="url(#clipPath2)" stroke="none">palabras</text>
      <ellipse rx="55" fill="none" ry="25" clip-path="url(#clipPath2)" cx="7222.5303" cy="780.923"/>
    </g>
    <g fill="rgb(255,204,0)" text-rendering="geometricPrecision" shape-rendering="geometricPrecision" transform="matrix(1,0,0,1,-6804,-150)" stroke="rgb(255,204,0)">
      <ellipse rx="55" ry="25" clip-path="url(#clipPath2)" cx="7222.5303" cy="457.1004" stroke="none"/>
    </g>
    <g font-size="13px" stroke-linecap="butt" transform="matrix(1,0,0,1,-6804,-150)" text-rendering="geometricPrecision" font-family="sans-serif" shape-rendering="geometricPrecision" stroke-miterlimit="1.45">
      <text x="7203.0146" xml:space="preserve" y="462.2071" clip-path="url(#clipPath2)" stroke="none">puntos</text>
      <ellipse rx="55" fill="none" ry="25" clip-path="url(#clipPath2)" cx="7222.5303" cy="457.1004"/>
    </g>
    <g fill="rgb(255,153,0)" text-rendering="geometricPrecision" shape-rendering="geometricPrecision" transform="matrix(1,0,0,1,-6804,-150)" stroke="rgb(255,153,0)">
      <ellipse rx="76.3483" ry="25" clip-path="url(#clipPath2)" cx="8705.5909" cy="1143.467" stroke="none"/>
    </g>
    <g font-size="13px" stroke-linecap="butt" transform="matrix(1,0,0,1,-6804,-150)" text-rendering="geometricPrecision" font-family="sans-serif" shape-rendering="geometricPrecision" stroke-miterlimit="1.45">
      <text x="8642.3809" xml:space="preserve" y="1148.5737" clip-path="url(#clipPath2)" stroke="none">CUENTA SCRABBLE</text>
      <ellipse rx="76.3483" fill="none" ry="25" clip-path="url(#clipPath2)" cx="8705.5909" cy="1143.467"/>
    </g>
    <g fill="rgb(255,204,0)" text-rendering="geometricPrecision" shape-rendering="geometricPrecision" transform="matrix(1,0,0,1,-6804,-150)" stroke="rgb(255,204,0)">
      <ellipse rx="55" ry="25" clip-path="url(#clipPath2)" cx="6982.3625" cy="591.3473" stroke="none"/>
    </g>
    <g font-size="13px" stroke-linecap="butt" transform="matrix(1,0,0,1,-6804,-150)" text-rendering="geometricPrecision" font-family="sans-serif" shape-rendering="geometricPrecision" stroke-miterlimit="1.45">
      <text x="6963.5732" xml:space="preserve" y="596.454" clip-path="url(#clipPath2)" stroke="none">celdas</text>
      <ellipse rx="55" fill="none" ry="25" clip-path="url(#clipPath2)" cx="6982.3625" cy="591.3473"/>
    </g>
    <g fill="rgb(255,204,0)" text-rendering="geometricPrecision" shape-rendering="geometricPrecision" transform="matrix(1,0,0,1,-6804,-150)" stroke="rgb(255,204,0)">
      <ellipse rx="58.5" ry="25" clip-path="url(#clipPath2)" cx="7222.5303" cy="334.6062" stroke="none"/>
    </g>
    <g font-size="13px" stroke-linecap="butt" transform="matrix(1,0,0,1,-6804,-150)" text-rendering="geometricPrecision" font-family="sans-serif" shape-rendering="geometricPrecision" stroke-miterlimit="1.45">
      <text x="7190.7256" xml:space="preserve" y="331.7498" clip-path="url(#clipPath2)" stroke="none">puntuación</text>
      <text x="7188.9258" xml:space="preserve" y="347.676" clip-path="url(#clipPath2)" stroke="none">final partida</text>
      <ellipse rx="58.5" fill="none" ry="25" clip-path="url(#clipPath2)" cx="7222.5303" cy="334.6062"/>
    </g>
    <g fill="rgb(255,204,0)" text-rendering="geometricPrecision" shape-rendering="geometricPrecision" transform="matrix(1,0,0,1,-6804,-150)" stroke="rgb(255,204,0)">
      <ellipse rx="55" ry="25" clip-path="url(#clipPath2)" cx="7929.6547" cy="204.8631" stroke="none"/>
    </g>
    <g font-size="13px" stroke-linecap="butt" transform="matrix(1,0,0,1,-6804,-150)" text-rendering="geometricPrecision" font-family="sans-serif" shape-rendering="geometricPrecision" stroke-miterlimit="1.45">
      <text x="7909.7803" xml:space="preserve" y="209.9698" clip-path="url(#clipPath2)" stroke="none">tablero</text>
      <ellipse rx="55" fill="none" ry="25" clip-path="url(#clipPath2)" cx="7929.6547" cy="204.8631"/>
    </g>
    <g fill="rgb(255,204,0)" text-rendering="geometricPrecision" shape-rendering="geometricPrecision" transform="matrix(1,0,0,1,-6804,-150)" stroke="rgb(255,204,0)">
      <ellipse rx="62" ry="21" clip-path="url(#clipPath2)" cx="8705.5909" cy="780.923" stroke="none"/>
    </g>
    <g font-size="13px" stroke-linecap="butt" transform="matrix(1,0,0,1,-6804,-150)" text-rendering="geometricPrecision" font-family="sans-serif" shape-rendering="geometricPrecision" stroke-miterlimit="1.45">
      <text x="8681.7461" xml:space="preserve" y="786.0297" clip-path="url(#clipPath2)" stroke="none">visitante</text>
      <ellipse rx="62" fill="none" ry="21" clip-path="url(#clipPath2)" cx="8705.5909" cy="780.923"/>
    </g>
    <g fill="rgb(255,102,0)" text-rendering="geometricPrecision" shape-rendering="geometricPrecision" transform="matrix(1,0,0,1,-6804,-150)" stroke="rgb(255,102,0)">
      <ellipse rx="97.5628" ry="33.0455" clip-path="url(#clipPath2)" cx="7929.6547" cy="1135.4216" stroke="none"/>
    </g>
    <g font-size="13px" stroke-linecap="butt" transform="matrix(1,0,0,1,-6804,-150)" text-rendering="geometricPrecision" font-family="sans-serif" shape-rendering="geometricPrecision" stroke-miterlimit="1.45">
      <text x="7888.4805" xml:space="preserve" y="1140.5283" clip-path="url(#clipPath2)" stroke="none">DASHBOARD</text>
      <ellipse rx="97.5628" fill="none" ry="33.0455" clip-path="url(#clipPath2)" cx="7929.6547" cy="1135.4216"/>
      <path fill="none" d="M7284.5303 999.0529 L7427.5806 999.0529" clip-path="url(#clipPath2)"/>
      <path d="M7435.5806 999.0529 L7423.5806 994.0529 L7426.5806 999.0529 L7423.5806 1004.0529 Z" stroke="none" clip-path="url(#clipPath2)"/>
      <text x="7308.0327" xml:space="preserve" font-size="12px" y="1033.7667" clip-path="url(#clipPath2)" stroke="none">sirven para calcular</text>
      <path fill="none" d="M7907.7827 487.8151 L7716.3989 756.5762" clip-path="url(#clipPath2)"/>
      <path d="M7912.4233 481.2986 L7901.3896 488.173 L7907.2026 488.6297 L7909.5352 493.9737 Z" stroke="none" clip-path="url(#clipPath2)"/>
      <text x="7742.5923" xml:space="preserve" font-size="12px" y="622.2" clip-path="url(#clipPath2)" stroke="none">participan en </text>
      <path fill="none" d="M7654.6416 801.2562 L7275.8574 974.6426" clip-path="url(#clipPath2)"/>
      <path d="M7268.5835 977.9723 L7281.5757 977.524 L7276.7671 974.2263 L7277.4136 968.4313 Z" stroke="none" clip-path="url(#clipPath2)"/>
      <text x="7389.3516" xml:space="preserve" font-size="12px" y="877.7719" clip-path="url(#clipPath2)" stroke="none">se registra en</text>
      <path fill="none" d="M7747.4971 761.5979 L7929.6548 688.9189 L7929.6548 490.1004" clip-path="url(#clipPath2)"/>
      <path d="M7929.6548 482.1004 L7924.6548 494.1004 L7929.6548 491.1004 L7934.6548 494.1004 Z" stroke="none" clip-path="url(#clipPath2)"/>
      <text x="7846.5752" xml:space="preserve" font-size="12px" y="747.0979" clip-path="url(#clipPath2)" stroke="none">abandonan</text>
      <path fill="none" d="M7861.0688 457.1004 L7762.062 457.1004" clip-path="url(#clipPath2)"/>
      <path d="M7754.062 457.1004 L7766.062 462.1004 L7763.062 457.1004 L7766.062 452.1004 Z" stroke="none" clip-path="url(#clipPath2)"/>
      <text x="7765.5361" xml:space="preserve" font-size="12px" y="431.8142" clip-path="url(#clipPath2)" stroke="none">se necesita una</text>
      <path fill="none" d="M7681.8418 756.5673 L7491.5571 487.4337" clip-path="url(#clipPath2)"/>
      <path d="M7486.939 480.9013 L7489.7837 493.5863 L7492.1343 488.2502 L7497.9492 487.8135 Z" stroke="none" clip-path="url(#clipPath2)"/>
      <text x="7601.6011" xml:space="preserve" font-size="12px" y="622.2413" clip-path="url(#clipPath2)" stroke="none">utilizan</text>
      <path fill="none" d="M7525.1108 457.1004 L7636.062 457.1004" clip-path="url(#clipPath2)"/>
      <path d="M7644.062 457.1004 L7632.062 452.1004 L7635.062 457.1004 L7632.062 462.1004 Z" stroke="none" clip-path="url(#clipPath2)"/>
      <text x="7548.229" xml:space="preserve" font-size="12px" y="431.8142" clip-path="url(#clipPath2)" stroke="none">se extraen de</text>
      <path fill="none" d="M7775.4102 780.923 L8197.666 780.923" clip-path="url(#clipPath2)"/>
      <path d="M8205.666 780.923 L8193.666 775.923 L8196.666 780.923 L8193.666 785.923 Z" stroke="none" clip-path="url(#clipPath2)"/>
      <text x="7980.8643" xml:space="preserve" font-size="12px" y="755.6369" clip-path="url(#clipPath2)" stroke="none">son</text>
      <path fill="none" d="M8267.7207 750.1439 L7962.2856 485.3857" clip-path="url(#clipPath2)"/>
      <path d="M7956.2407 480.1457 L7962.0332 491.7839 L7963.0415 486.0407 L7968.583 484.2276 Z" stroke="none" clip-path="url(#clipPath2)"/>
      <text x="8137.6577" xml:space="preserve" font-size="12px" y="615.14" clip-path="url(#clipPath2)" stroke="none">juega</text>
      <path fill="none" d="M8303.2285 813.9685 L8303.2285 1275.234" clip-path="url(#clipPath2)"/>
      <path d="M8303.2285 1283.234 L8308.2285 1271.234 L8303.2285 1274.234 L8298.2285 1271.234 Z" stroke="none" clip-path="url(#clipPath2)"/>
      <text x="8212.2002" xml:space="preserve" font-size="12px" y="1053.3152" clip-path="url(#clipPath2)" stroke="none">puede modificar           </text>
      <path fill="none" d="M7222.5303 1030.5388 L7222.5303 1303.0687 L7427.6313 1307.021" clip-path="url(#clipPath2)"/>
      <path d="M7435.6299 1307.1752 L7423.7285 1301.9448 L7426.6313 1307.0017 L7423.5356 1311.943 Z" stroke="none" clip-path="url(#clipPath2)"/>
      <text x="7195.145" xml:space="preserve" font-size="12px" y="1340.932" clip-path="url(#clipPath2)" stroke="none">sirven para establecer</text>
      <path fill="none" d="M8303.2285 747.8776 L8303.2285 490.1004" clip-path="url(#clipPath2)"/>
      <path d="M8303.2285 482.1004 L8298.2285 494.1004 L8303.2285 491.1004 L8308.2285 494.1004 Z" stroke="none" clip-path="url(#clipPath2)"/>
      <text x="8320.374" xml:space="preserve" font-size="12px" y="619.7028" clip-path="url(#clipPath2)" stroke="none">envía</text>
      <path fill="none" d="M8332.2471 749.3731 L8448.875 622.5713 L8339.3838 483.9973" clip-path="url(#clipPath2)"/>
      <path d="M8334.4248 477.7199 L8337.9404 490.2356 L8340.0039 484.782 L8345.7871 484.0365 Z" stroke="none" clip-path="url(#clipPath2)"/>
      <text x="8433.6641" xml:space="preserve" font-size="12px" y="668.5519" clip-path="url(#clipPath2)" stroke="none">acepta</text>
      <path fill="none" d="M8350.5098 752.0175 L8547.0918 631.837 L8355.417 475.8597" clip-path="url(#clipPath2)"/>
      <path d="M8349.2119 470.8102 L8355.3633 482.2626 L8356.1924 476.4909 L8361.6758 474.5062 Z" stroke="none" clip-path="url(#clipPath2)"/>
      <text x="8474.5928" xml:space="preserve" font-size="12px" y="702.9857" clip-path="url(#clipPath2)" stroke="none">rechaza</text>
      <path fill="none" d="M8316.9883 489.3278 L8316.9883 748.1801" clip-path="url(#clipPath2)"/>
      <path d="M8316.9883 481.3278 L8311.9883 493.3278 L8316.9883 490.3278 L8321.9883 493.3278 Z" stroke="none" clip-path="url(#clipPath2)"/>
      <text x="8263.6172" xml:space="preserve" font-size="12px" y="618.0869" clip-path="url(#clipPath2)" stroke="none">recibe  </text>
      <path fill="none" d="M8248.2285 457.1004 L8006.2402 457.1004" clip-path="url(#clipPath2)"/>
      <path d="M7998.2402 457.1004 L8010.2402 462.1004 L8007.2402 457.1004 L8010.2402 452.1004 Z" stroke="none" clip-path="url(#clipPath2)"/>
      <text x="8070.8691" xml:space="preserve" font-size="12px" y="431.8142" clip-path="url(#clipPath2)" stroke="none">su aceptación inicia</text>
      <path fill="none" d="M7622.7134 780.923 L7285.5303 780.923" clip-path="url(#clipPath2)"/>
      <path d="M7277.5303 780.923 L7289.5303 785.923 L7286.5303 780.923 L7289.5303 775.923 Z" stroke="none" clip-path="url(#clipPath2)"/>
      <text x="7435.1133" xml:space="preserve" font-size="12px" y="755.6369" clip-path="url(#clipPath2)" stroke="none">crean</text>
      <path fill="none" d="M7452.0562 480.715 L7245.4438 750.9531" clip-path="url(#clipPath2)"/>
      <path d="M7240.585 757.3085 L7251.8452 750.8122 L7246.0513 750.1587 L7243.9014 744.7386 Z" stroke="none" clip-path="url(#clipPath2)"/>
      <text x="7291.3628" xml:space="preserve" font-size="12px" y="621.7902" clip-path="url(#clipPath2)" stroke="none">forman</text>
      <path fill="none" d="M7415.1108 457.1004 L7285.5303 457.1004" clip-path="url(#clipPath2)"/>
      <path d="M7277.5303 457.1004 L7289.5303 462.1004 L7286.5303 457.1004 L7289.5303 452.1004 Z" stroke="none" clip-path="url(#clipPath2)"/>
      <text x="7329.9727" xml:space="preserve" font-size="12px" y="431.8142" clip-path="url(#clipPath2)" stroke="none">tienen</text>
      <path fill="none" d="M7222.5303 755.923 L7222.5303 490.1004" clip-path="url(#clipPath2)"/>
      <path d="M7222.5303 482.1004 L7217.5303 494.1004 L7222.5303 491.1004 L7227.5303 494.1004 Z" stroke="none" clip-path="url(#clipPath2)"/>
      <text x="7170.5107" xml:space="preserve" font-size="12px" y="623.7256" clip-path="url(#clipPath2)" stroke="none">generan</text>
      <path fill="none" d="M8337.5576 811.8552 L8673.5703 1114.6154" clip-path="url(#clipPath2)"/>
      <path d="M8679.5137 1119.9705 L8673.9453 1108.2233 L8672.8271 1113.946 L8667.252 1115.6525 Z" stroke="none" clip-path="url(#clipPath2)"/>
      <text x="8550.0547" xml:space="preserve" font-size="12px" y="978.4614" clip-path="url(#clipPath2)" stroke="none">elimina</text>
      <path fill="none" d="M8659.8633 1163.4869 L8360.4912 1294.5543" clip-path="url(#clipPath2)"/>
      <path d="M8353.1631 1297.7626 L8366.1611 1297.5305 L8361.4072 1294.1533 L8362.1504 1288.3699 Z" stroke="none" clip-path="url(#clipPath2)"/>
      <text x="8451.1992" xml:space="preserve" font-size="12px" y="1217.1686" clip-path="url(#clipPath2)" stroke="none">requiere</text>
      <path fill="none" d="M7195.084 759.2584 L7016.0884 617.9686" clip-path="url(#clipPath2)"/>
      <path d="M7009.8091 613.0119 L7016.1304 624.3716 L7016.8735 618.5883 L7022.3262 616.5224 Z" stroke="none" clip-path="url(#clipPath2)"/>
      <text x="7021.1602" xml:space="preserve" font-size="12px" y="695.4477" clip-path="url(#clipPath2)" stroke="none">se colocan en </text>
      <path fill="none" d="M7017.0625 571.9509 L7180.8472 480.4001" clip-path="url(#clipPath2)"/>
      <path d="M7187.8301 476.4967 L7174.916 477.9874 L7179.9741 480.888 L7179.7949 486.7162 Z" stroke="none" clip-path="url(#clipPath2)"/>
      <text x="7023.3154" xml:space="preserve" font-size="12px" y="528.8124" clip-path="url(#clipPath2)" stroke="none">multiplican</text>
      <path fill="none" d="M7222.5303 432.1004 L7222.5303 367.6062" clip-path="url(#clipPath2)"/>
      <path d="M7222.5303 359.6062 L7217.5303 371.6062 L7222.5303 368.6062 L7227.5303 371.6062 Z" stroke="none" clip-path="url(#clipPath2)"/>
      <text x="7054.1562" xml:space="preserve" font-size="12px" y="400.5672" clip-path="url(#clipPath2)" stroke="none">se contabilizan para obtener la</text>
      <path fill="none" d="M7164.0303 334.6062 L6819.7271 334.6062 L6819.7271 999.0529 L7152.5303 999.0529" clip-path="url(#clipPath2)"/>
      <path d="M7160.5303 999.0529 L7148.5303 994.0529 L7151.5303 999.0529 L7148.5303 1004.0529 Z" stroke="none" clip-path="url(#clipPath2)"/>
      <text x="6836.3662" xml:space="preserve" font-size="12px" y="973.7667" clip-path="url(#clipPath2)" stroke="none">se registra en</text>
      <path fill="none" d="M7929.6548 432.1004 L7929.6548 237.8631" clip-path="url(#clipPath2)"/>
      <path d="M7929.6548 229.8631 L7924.6548 241.8631 L7929.6548 238.8631 L7934.6548 241.8631 Z" stroke="none" clip-path="url(#clipPath2)"/>
      <text x="7925.2954" xml:space="preserve" font-size="12px" y="335.6956" clip-path="url(#clipPath2)" stroke="none">  se juega en</text>
      <path fill="none" d="M7874.6548 204.8631 L6982.3623 204.8631 L6982.3623 558.3473" clip-path="url(#clipPath2)"/>
      <path d="M6982.3623 566.3473 L6987.3623 554.3473 L6982.3623 557.3473 L6977.3623 554.3473 Z" stroke="none" clip-path="url(#clipPath2)"/>
      <text x="7363.4678" xml:space="preserve" font-size="12px" y="179.577" clip-path="url(#clipPath2)" stroke="none">se compone de</text>
      <path fill="none" d="M8705.5908 801.923 L8705.5908 1110.467" clip-path="url(#clipPath2)"/>
      <path d="M8705.5908 1118.467 L8710.5908 1106.467 L8705.5908 1109.467 L8700.5908 1106.467 Z" stroke="none" clip-path="url(#clipPath2)"/>
      <text x="8663.9189" xml:space="preserve" font-size="12px" y="964.9089" clip-path="url(#clipPath2)" stroke="none">crea</text>
      <path fill="none" d="M8643.5908 780.923 L8408.791 780.923" clip-path="url(#clipPath2)"/>
      <path d="M8400.791 780.923 L8412.791 785.923 L8409.791 780.923 L8412.791 775.923 Z" stroke="none" clip-path="url(#clipPath2)"/>
      <text x="8506.1064" xml:space="preserve" font-size="12px" y="732.1064" clip-path="url(#clipPath2)" stroke="none">se convierte en</text>
      <path fill="none" d="M8270.4316 812.0453 L7968.2549 1098.7925" clip-path="url(#clipPath2)"/>
      <path d="M7962.4517 1104.2992 L7974.5981 1099.6661 L7968.98 1098.1042 L7967.7148 1092.4122 Z" stroke="none" clip-path="url(#clipPath2)"/>
      <text x="8049.0752" xml:space="preserve" font-size="12px" y="959.1807" clip-path="url(#clipPath2)" stroke="none">acceden a</text>
      <path fill="none" d="M7857.7461 1113.0881 L7543.6318 1015.5297" clip-path="url(#clipPath2)"/>
      <path d="M7535.9917 1013.1569 L7545.9688 1021.4911 L7544.5869 1015.8264 L7548.9346 1011.9412 Z" stroke="none" clip-path="url(#clipPath2)"/>
      <text x="7666.6035" xml:space="preserve" font-size="12px" y="1045.7706" clip-path="url(#clipPath2)" stroke="none">muestra y da acceso a</text>
      <path fill="none" d="M7866.0151 1160.469 L7539.6035 1288.9393" clip-path="url(#clipPath2)"/>
      <path d="M7532.1592 1291.8693 L7545.1567 1292.1271 L7540.5337 1288.5731 L7541.4941 1282.8219 Z" stroke="none" clip-path="url(#clipPath2)"/>
      <text x="7589.2979" xml:space="preserve" font-size="12px" y="1218.0964" clip-path="url(#clipPath2)" stroke="none">muestra y da acceso a</text>
      <path fill="none" d="M7929.6548 1168.467 L7929.6548 1450.6693 L8909.3955 1450.6693 L8928.1055 370.5017 L8032.4385 370.5017 L7963.0059 429.001" clip-path="url(#clipPath2)"/>
      <path d="M7956.8877 434.1555 L7969.2861 430.2475 L7963.7705 428.3567 L7962.8433 422.5999 Z" stroke="none" clip-path="url(#clipPath2)"/>
      <text x="7949.9917" xml:space="preserve" font-size="12px" y="1485.3832" clip-path="url(#clipPath2)" stroke="none">muestra y da acceso a</text>
      <path fill="none" d="M7987.2915 1162.084 L8257.4199 1287.0432" clip-path="url(#clipPath2)"/>
      <path d="M8264.6807 1290.402 L8255.8887 1280.8258 L8256.5127 1286.6234 L8251.6904 1289.9017 Z" stroke="none" clip-path="url(#clipPath2)"/>
      <text x="8024.3164" xml:space="preserve" font-size="12px" y="1244.9033" clip-path="url(#clipPath2)" stroke="none">muestra y da acceso a</text>
      <path fill="none" d="M7938.0332 1168.345 L7990.2466 1373.5144 L8825.5312 1363.4508 L8844.2412 457.1004 L8366.2285 457.1004" clip-path="url(#clipPath2)"/>
      <path d="M8358.2285 457.1004 L8370.2285 462.1004 L8367.2285 457.1004 L8370.2285 452.1004 Z" stroke="none" clip-path="url(#clipPath2)"/>
      <text x="8219.4746" xml:space="preserve" font-size="12px" y="1404.7415" clip-path="url(#clipPath2)" stroke="none">muestra y da acceso a</text>
      <path fill="none" d="M7832.0918 1135.4216 L7334.6904 1135.4216 L7251.5078 1034.2849" clip-path="url(#clipPath2)"/>
      <path d="M7246.4263 1028.1062 L7250.187 1040.5503 L7252.1431 1035.0573 L7257.9106 1034.1982 Z" stroke="none" clip-path="url(#clipPath2)"/>
      <text x="7489.3462" xml:space="preserve" font-size="12px" y="1110.1355" clip-path="url(#clipPath2)" stroke="none">muestra y da acceso a</text>
    </g>
  </g>
</svg>
